%YAML 1.1
%TAG !u! tag:unity3d.com,2011:
--- !u!29 &1
OcclusionCullingSettings:
  m_ObjectHideFlags: 0
  serializedVersion: 2
  m_OcclusionBakeSettings:
    smallestOccluder: 5
    smallestHole: 0.25
    backfaceThreshold: 100
  m_SceneGUID: 00000000000000000000000000000000
  m_OcclusionCullingData: {fileID: 0}
--- !u!104 &2
RenderSettings:
  m_ObjectHideFlags: 0
  serializedVersion: 9
  m_Fog: 0
  m_FogColor: {r: 0.5, g: 0.5, b: 0.5, a: 1}
  m_FogMode: 3
  m_FogDensity: 0.01
  m_LinearFogStart: 0
  m_LinearFogEnd: 300
  m_AmbientSkyColor: {r: 0.212, g: 0.227, b: 0.259, a: 1}
  m_AmbientEquatorColor: {r: 0.114, g: 0.125, b: 0.133, a: 1}
  m_AmbientGroundColor: {r: 0.047, g: 0.043, b: 0.035, a: 1}
  m_AmbientIntensity: 1
  m_AmbientMode: 0
  m_SubtractiveShadowColor: {r: 0.42, g: 0.478, b: 0.627, a: 1}
  m_SkyboxMaterial: {fileID: 10304, guid: 0000000000000000f000000000000000, type: 0}
  m_HaloStrength: 0.5
  m_FlareStrength: 1
  m_FlareFadeSpeed: 3
  m_HaloTexture: {fileID: 0}
  m_SpotCookie: {fileID: 10001, guid: 0000000000000000e000000000000000, type: 0}
  m_DefaultReflectionMode: 0
  m_DefaultReflectionResolution: 128
  m_ReflectionBounces: 1
  m_ReflectionIntensity: 1
  m_CustomReflection: {fileID: 0}
  m_Sun: {fileID: 0}
  m_IndirectSpecularColor: {r: 0.18028378, g: 0.22571412, b: 0.30692285, a: 1}
  m_UseRadianceAmbientProbe: 0
--- !u!157 &3
LightmapSettings:
  m_ObjectHideFlags: 0
  serializedVersion: 12
  m_GIWorkflowMode: 1
  m_GISettings:
    serializedVersion: 2
    m_BounceScale: 1
    m_IndirectOutputScale: 1
    m_AlbedoBoost: 1
    m_EnvironmentLightingMode: 0
    m_EnableBakedLightmaps: 1
    m_EnableRealtimeLightmaps: 0
  m_LightmapEditorSettings:
    serializedVersion: 12
    m_Resolution: 2
    m_BakeResolution: 40
    m_AtlasSize: 1024
    m_AO: 0
    m_AOMaxDistance: 1
    m_CompAOExponent: 1
    m_CompAOExponentDirect: 0
    m_ExtractAmbientOcclusion: 0
    m_Padding: 2
    m_LightmapParameters: {fileID: 0}
    m_LightmapsBakeMode: 1
    m_TextureCompression: 1
    m_FinalGather: 0
    m_FinalGatherFiltering: 1
    m_FinalGatherRayCount: 256
    m_ReflectionCompression: 2
    m_MixedBakeMode: 2
    m_BakeBackend: 1
    m_PVRSampling: 1
    m_PVRDirectSampleCount: 32
    m_PVRSampleCount: 512
    m_PVRBounces: 2
    m_PVREnvironmentSampleCount: 256
    m_PVREnvironmentReferencePointCount: 2048
    m_PVRFilteringMode: 1
    m_PVRDenoiserTypeDirect: 1
    m_PVRDenoiserTypeIndirect: 1
    m_PVRDenoiserTypeAO: 1
    m_PVRFilterTypeDirect: 0
    m_PVRFilterTypeIndirect: 0
    m_PVRFilterTypeAO: 0
    m_PVREnvironmentMIS: 1
    m_PVRCulling: 1
    m_PVRFilteringGaussRadiusDirect: 1
    m_PVRFilteringGaussRadiusIndirect: 5
    m_PVRFilteringGaussRadiusAO: 2
    m_PVRFilteringAtrousPositionSigmaDirect: 0.5
    m_PVRFilteringAtrousPositionSigmaIndirect: 2
    m_PVRFilteringAtrousPositionSigmaAO: 1
    m_ExportTrainingData: 0
    m_TrainingDataDestination: TrainingData
    m_LightProbeSampleCountMultiplier: 4
  m_LightingDataAsset: {fileID: 0}
  m_LightingSettings: {fileID: 0}
--- !u!196 &4
NavMeshSettings:
  serializedVersion: 2
  m_ObjectHideFlags: 0
  m_BuildSettings:
    serializedVersion: 2
    agentTypeID: 0
    agentRadius: 0.5
    agentHeight: 2
    agentSlope: 45
    agentClimb: 0.4
    ledgeDropHeight: 0
    maxJumpAcrossDistance: 0
    minRegionArea: 2
    manualCellSize: 0
    cellSize: 0.16666667
    manualTileSize: 0
    tileSize: 256
    accuratePlacement: 0
    maxJobWorkers: 0
    preserveTilesOutsideBounds: 0
    debug:
      m_Flags: 0
  m_NavMeshData: {fileID: 0}
--- !u!1001 &73248217
PrefabInstance:
  m_ObjectHideFlags: 0
  serializedVersion: 2
  m_Modification:
    m_TransformParent: {fileID: 0}
    m_Modifications:
    - target: {fileID: 7122898442922194329, guid: d862dff190f463f41a56da7e84429068, type: 3}
      propertyPath: m_Name
      value: PushingObstacle (1)
      objectReference: {fileID: 0}
    - target: {fileID: 7122898442922194330, guid: d862dff190f463f41a56da7e84429068, type: 3}
      propertyPath: m_RootOrder
      value: 22
      objectReference: {fileID: 0}
    - target: {fileID: 7122898442922194330, guid: d862dff190f463f41a56da7e84429068, type: 3}
      propertyPath: m_LocalPosition.x
      value: 162.22
      objectReference: {fileID: 0}
    - target: {fileID: 7122898442922194330, guid: d862dff190f463f41a56da7e84429068, type: 3}
      propertyPath: m_LocalPosition.y
      value: 12.151
      objectReference: {fileID: 0}
    - target: {fileID: 7122898442922194330, guid: d862dff190f463f41a56da7e84429068, type: 3}
      propertyPath: m_LocalPosition.z
      value: 84.99
      objectReference: {fileID: 0}
    - target: {fileID: 7122898442922194330, guid: d862dff190f463f41a56da7e84429068, type: 3}
      propertyPath: m_LocalRotation.w
      value: 1
      objectReference: {fileID: 0}
    - target: {fileID: 7122898442922194330, guid: d862dff190f463f41a56da7e84429068, type: 3}
      propertyPath: m_LocalRotation.x
      value: 0
      objectReference: {fileID: 0}
    - target: {fileID: 7122898442922194330, guid: d862dff190f463f41a56da7e84429068, type: 3}
      propertyPath: m_LocalRotation.y
      value: 0
      objectReference: {fileID: 0}
    - target: {fileID: 7122898442922194330, guid: d862dff190f463f41a56da7e84429068, type: 3}
      propertyPath: m_LocalRotation.z
      value: 0
      objectReference: {fileID: 0}
    - target: {fileID: 7122898442922194330, guid: d862dff190f463f41a56da7e84429068, type: 3}
      propertyPath: m_LocalEulerAnglesHint.x
      value: 0
      objectReference: {fileID: 0}
    - target: {fileID: 7122898442922194330, guid: d862dff190f463f41a56da7e84429068, type: 3}
      propertyPath: m_LocalEulerAnglesHint.y
      value: 0
      objectReference: {fileID: 0}
    - target: {fileID: 7122898442922194330, guid: d862dff190f463f41a56da7e84429068, type: 3}
      propertyPath: m_LocalEulerAnglesHint.z
      value: 0
      objectReference: {fileID: 0}
    - target: {fileID: 7122898444190968838, guid: d862dff190f463f41a56da7e84429068, type: 3}
      propertyPath: m_LocalScale.x
      value: 4.1525273
      objectReference: {fileID: 0}
    - target: {fileID: 7122898444190968838, guid: d862dff190f463f41a56da7e84429068, type: 3}
      propertyPath: m_LocalPosition.x
      value: -0.47000122
      objectReference: {fileID: 0}
    m_RemovedComponents: []
  m_SourcePrefab: {fileID: 100100000, guid: d862dff190f463f41a56da7e84429068, type: 3}
--- !u!1 &146303951 stripped
GameObject:
  m_CorrespondingSourceObject: {fileID: 4851864226288995874, guid: a118ade0af99550498c02ae410e5c750, type: 3}
  m_PrefabInstance: {fileID: 3727239075534582003}
  m_PrefabAsset: {fileID: 0}
--- !u!1001 &474997145
PrefabInstance:
  m_ObjectHideFlags: 0
  serializedVersion: 2
  m_Modification:
    m_TransformParent: {fileID: 0}
    m_Modifications:
    - target: {fileID: 5020803408574554042, guid: db0e4e87342af6e429eefb8368cb5ba2, type: 3}
      propertyPath: m_RootOrder
      value: 7
      objectReference: {fileID: 0}
    - target: {fileID: 5020803408574554042, guid: db0e4e87342af6e429eefb8368cb5ba2, type: 3}
      propertyPath: m_LocalPosition.x
      value: 150
      objectReference: {fileID: 0}
    - target: {fileID: 5020803408574554042, guid: db0e4e87342af6e429eefb8368cb5ba2, type: 3}
      propertyPath: m_LocalPosition.y
      value: 10.59
      objectReference: {fileID: 0}
    - target: {fileID: 5020803408574554042, guid: db0e4e87342af6e429eefb8368cb5ba2, type: 3}
      propertyPath: m_LocalPosition.z
      value: 90
      objectReference: {fileID: 0}
    - target: {fileID: 5020803408574554042, guid: db0e4e87342af6e429eefb8368cb5ba2, type: 3}
      propertyPath: m_LocalRotation.w
      value: 1
      objectReference: {fileID: 0}
    - target: {fileID: 5020803408574554042, guid: db0e4e87342af6e429eefb8368cb5ba2, type: 3}
      propertyPath: m_LocalRotation.x
      value: 0
      objectReference: {fileID: 0}
    - target: {fileID: 5020803408574554042, guid: db0e4e87342af6e429eefb8368cb5ba2, type: 3}
      propertyPath: m_LocalRotation.y
      value: 0
      objectReference: {fileID: 0}
    - target: {fileID: 5020803408574554042, guid: db0e4e87342af6e429eefb8368cb5ba2, type: 3}
      propertyPath: m_LocalRotation.z
      value: 0
      objectReference: {fileID: 0}
    - target: {fileID: 5020803408574554042, guid: db0e4e87342af6e429eefb8368cb5ba2, type: 3}
      propertyPath: m_LocalEulerAnglesHint.x
      value: 0
      objectReference: {fileID: 0}
    - target: {fileID: 5020803408574554042, guid: db0e4e87342af6e429eefb8368cb5ba2, type: 3}
      propertyPath: m_LocalEulerAnglesHint.y
      value: 0
      objectReference: {fileID: 0}
    - target: {fileID: 5020803408574554042, guid: db0e4e87342af6e429eefb8368cb5ba2, type: 3}
      propertyPath: m_LocalEulerAnglesHint.z
      value: 0
      objectReference: {fileID: 0}
    - target: {fileID: 5020803408574554046, guid: db0e4e87342af6e429eefb8368cb5ba2, type: 3}
      propertyPath: m_Name
      value: Ground
      objectReference: {fileID: 0}
    m_RemovedComponents: []
  m_SourcePrefab: {fileID: 100100000, guid: db0e4e87342af6e429eefb8368cb5ba2, type: 3}
--- !u!1001 &658795449
PrefabInstance:
  m_ObjectHideFlags: 0
  serializedVersion: 2
  m_Modification:
    m_TransformParent: {fileID: 0}
    m_Modifications:
    - target: {fileID: 4060224906294465812, guid: 7fb08d262731eae4ebc66f58ae736a00, type: 3}
      propertyPath: FailUI
      value: 
      objectReference: {fileID: 751464603}
    - target: {fileID: 6942622646210113193, guid: 7fb08d262731eae4ebc66f58ae736a00, type: 3}
      propertyPath: m_Name
      value: KillZone
      objectReference: {fileID: 0}
    - target: {fileID: 6942622646210113197, guid: 7fb08d262731eae4ebc66f58ae736a00, type: 3}
      propertyPath: m_RootOrder
      value: 20
      objectReference: {fileID: 0}
    - target: {fileID: 6942622646210113197, guid: 7fb08d262731eae4ebc66f58ae736a00, type: 3}
      propertyPath: m_LocalPosition.x
      value: 150
      objectReference: {fileID: 0}
    - target: {fileID: 6942622646210113197, guid: 7fb08d262731eae4ebc66f58ae736a00, type: 3}
      propertyPath: m_LocalPosition.y
      value: -1.5
      objectReference: {fileID: 0}
    - target: {fileID: 6942622646210113197, guid: 7fb08d262731eae4ebc66f58ae736a00, type: 3}
      propertyPath: m_LocalPosition.z
      value: 91.8
      objectReference: {fileID: 0}
    - target: {fileID: 6942622646210113197, guid: 7fb08d262731eae4ebc66f58ae736a00, type: 3}
      propertyPath: m_LocalRotation.w
      value: 1
      objectReference: {fileID: 0}
    - target: {fileID: 6942622646210113197, guid: 7fb08d262731eae4ebc66f58ae736a00, type: 3}
      propertyPath: m_LocalRotation.x
      value: 0
      objectReference: {fileID: 0}
    - target: {fileID: 6942622646210113197, guid: 7fb08d262731eae4ebc66f58ae736a00, type: 3}
      propertyPath: m_LocalRotation.y
      value: 0
      objectReference: {fileID: 0}
    - target: {fileID: 6942622646210113197, guid: 7fb08d262731eae4ebc66f58ae736a00, type: 3}
      propertyPath: m_LocalRotation.z
      value: 0
      objectReference: {fileID: 0}
    - target: {fileID: 6942622646210113197, guid: 7fb08d262731eae4ebc66f58ae736a00, type: 3}
      propertyPath: m_LocalEulerAnglesHint.x
      value: 0
      objectReference: {fileID: 0}
    - target: {fileID: 6942622646210113197, guid: 7fb08d262731eae4ebc66f58ae736a00, type: 3}
      propertyPath: m_LocalEulerAnglesHint.y
      value: 0
      objectReference: {fileID: 0}
    - target: {fileID: 6942622646210113197, guid: 7fb08d262731eae4ebc66f58ae736a00, type: 3}
      propertyPath: m_LocalEulerAnglesHint.z
      value: 0
      objectReference: {fileID: 0}
    m_RemovedComponents: []
  m_SourcePrefab: {fileID: 100100000, guid: 7fb08d262731eae4ebc66f58ae736a00, type: 3}
--- !u!1001 &751464600
PrefabInstance:
  m_ObjectHideFlags: 0
  serializedVersion: 2
  m_Modification:
    m_TransformParent: {fileID: 0}
    m_Modifications:
    - target: {fileID: 1629382691136711147, guid: d04ad26d96847ef47904410b08053ec1, type: 3}
      propertyPath: m_TagString
      value: ToolTip
      objectReference: {fileID: 0}
    - target: {fileID: 4930901295098191828, guid: d04ad26d96847ef47904410b08053ec1, type: 3}
      propertyPath: m_OnClick.m_PersistentCalls.m_Calls.Array.data[0].m_Target
      value: 
      objectReference: {fileID: 1455511026}
    - target: {fileID: 4930901295098191828, guid: d04ad26d96847ef47904410b08053ec1, type: 3}
      propertyPath: m_OnClick.m_PersistentCalls.m_Calls.Array.data[0].m_MethodName
      value: LoadLevel
      objectReference: {fileID: 0}
    - target: {fileID: 4930901295098191828, guid: d04ad26d96847ef47904410b08053ec1, type: 3}
      propertyPath: m_OnClick.m_PersistentCalls.m_Calls.Array.data[0].m_Arguments.m_IntArgument
      value: 3
      objectReference: {fileID: 0}
    - target: {fileID: 8961856323049467996, guid: d04ad26d96847ef47904410b08053ec1, type: 3}
      propertyPath: m_OnClick.m_PersistentCalls.m_Calls.Array.data[0].m_Target
      value: 
      objectReference: {fileID: 1455511026}
    - target: {fileID: 8961856323049467996, guid: d04ad26d96847ef47904410b08053ec1, type: 3}
      propertyPath: m_OnClick.m_PersistentCalls.m_Calls.Array.data[0].m_MethodName
      value: LoadLevel
      objectReference: {fileID: 0}
    - target: {fileID: 8961856323049467996, guid: d04ad26d96847ef47904410b08053ec1, type: 3}
      propertyPath: m_OnClick.m_PersistentCalls.m_Calls.Array.data[0].m_TargetAssemblyTypeName
      value: GameManager, Assembly-CSharp
      objectReference: {fileID: 0}
    - target: {fileID: 8961856323049467996, guid: d04ad26d96847ef47904410b08053ec1, type: 3}
      propertyPath: m_OnClick.m_PersistentCalls.m_Calls.Array.data[0].m_Arguments.m_ObjectArgumentAssemblyTypeName
      value: UnityEngine.Object, UnityEngine
      objectReference: {fileID: 0}
    - target: {fileID: 8989471376607411576, guid: d04ad26d96847ef47904410b08053ec1, type: 3}
      propertyPath: m_OnClick.m_PersistentCalls.m_Calls.Array.data[0].m_Target
      value: 
      objectReference: {fileID: 1455511026}
    - target: {fileID: 8989471376607411576, guid: d04ad26d96847ef47904410b08053ec1, type: 3}
      propertyPath: m_OnClick.m_PersistentCalls.m_Calls.Array.data[0].m_MethodName
      value: LoadLevel5
      objectReference: {fileID: 0}
    - target: {fileID: 8989471376891418424, guid: d04ad26d96847ef47904410b08053ec1, type: 3}
      propertyPath: m_Text
      value: "\u0423\u0440\u043E\u0432\u0435\u043D\u044C 3"
      objectReference: {fileID: 0}
    - target: {fileID: 8989471376891418424, guid: d04ad26d96847ef47904410b08053ec1, type: 3}
      propertyPath: m_FontData.m_Alignment
      value: 4
      objectReference: {fileID: 0}
    - target: {fileID: 8989471376899618288, guid: d04ad26d96847ef47904410b08053ec1, type: 3}
      propertyPath: m_OnClick.m_PersistentCalls.m_Calls.Array.data[0].m_Target
      value: 
      objectReference: {fileID: 1455511026}
    - target: {fileID: 8989471376899618288, guid: d04ad26d96847ef47904410b08053ec1, type: 3}
      propertyPath: m_OnClick.m_PersistentCalls.m_Calls.Array.data[0].m_MethodName
      value: LoadLevel
      objectReference: {fileID: 0}
    - target: {fileID: 8989471376958816524, guid: d04ad26d96847ef47904410b08053ec1, type: 3}
      propertyPath: m_OnClick.m_PersistentCalls.m_Calls.Array.data[0].m_Target
      value: 
      objectReference: {fileID: 1455511026}
    - target: {fileID: 8989471376958816524, guid: d04ad26d96847ef47904410b08053ec1, type: 3}
      propertyPath: m_OnClick.m_PersistentCalls.m_Calls.Array.data[0].m_MethodName
      value: LoadLevel
      objectReference: {fileID: 0}
    - target: {fileID: 8989471377024857941, guid: d04ad26d96847ef47904410b08053ec1, type: 3}
      propertyPath: m_IsActive
      value: 0
      objectReference: {fileID: 0}
    - target: {fileID: 8989471377155108609, guid: d04ad26d96847ef47904410b08053ec1, type: 3}
      propertyPath: m_OnClick.m_PersistentCalls.m_Calls.Array.data[0].m_Mode
      value: 3
      objectReference: {fileID: 0}
    - target: {fileID: 8989471377155108609, guid: d04ad26d96847ef47904410b08053ec1, type: 3}
      propertyPath: m_OnClick.m_PersistentCalls.m_Calls.Array.data[0].m_Target
      value: 
      objectReference: {fileID: 1455511026}
    - target: {fileID: 8989471377155108609, guid: d04ad26d96847ef47904410b08053ec1, type: 3}
      propertyPath: m_OnClick.m_PersistentCalls.m_Calls.Array.data[0].m_MethodName
      value: LoadLevel
      objectReference: {fileID: 0}
    - target: {fileID: 8989471377409904400, guid: d04ad26d96847ef47904410b08053ec1, type: 3}
      propertyPath: m_OnClick.m_PersistentCalls.m_Calls.Array.data[0].m_Target
      value: 
      objectReference: {fileID: 1455511026}
    - target: {fileID: 8989471377409904400, guid: d04ad26d96847ef47904410b08053ec1, type: 3}
      propertyPath: m_OnClick.m_PersistentCalls.m_Calls.Array.data[0].m_MethodName
      value: LoadLevel4
      objectReference: {fileID: 0}
    - target: {fileID: 8989471377459135131, guid: d04ad26d96847ef47904410b08053ec1, type: 3}
      propertyPath: m_Pivot.x
      value: 0
      objectReference: {fileID: 0}
    - target: {fileID: 8989471377459135131, guid: d04ad26d96847ef47904410b08053ec1, type: 3}
      propertyPath: m_Pivot.y
      value: 0
      objectReference: {fileID: 0}
    - target: {fileID: 8989471377459135131, guid: d04ad26d96847ef47904410b08053ec1, type: 3}
      propertyPath: m_RootOrder
      value: 1
      objectReference: {fileID: 0}
    - target: {fileID: 8989471377459135131, guid: d04ad26d96847ef47904410b08053ec1, type: 3}
      propertyPath: m_AnchorMax.x
      value: 0
      objectReference: {fileID: 0}
    - target: {fileID: 8989471377459135131, guid: d04ad26d96847ef47904410b08053ec1, type: 3}
      propertyPath: m_AnchorMax.y
      value: 0
      objectReference: {fileID: 0}
    - target: {fileID: 8989471377459135131, guid: d04ad26d96847ef47904410b08053ec1, type: 3}
      propertyPath: m_AnchorMin.x
      value: 0
      objectReference: {fileID: 0}
    - target: {fileID: 8989471377459135131, guid: d04ad26d96847ef47904410b08053ec1, type: 3}
      propertyPath: m_AnchorMin.y
      value: 0
      objectReference: {fileID: 0}
    - target: {fileID: 8989471377459135131, guid: d04ad26d96847ef47904410b08053ec1, type: 3}
      propertyPath: m_SizeDelta.x
      value: 0
      objectReference: {fileID: 0}
    - target: {fileID: 8989471377459135131, guid: d04ad26d96847ef47904410b08053ec1, type: 3}
      propertyPath: m_SizeDelta.y
      value: 0
      objectReference: {fileID: 0}
    - target: {fileID: 8989471377459135131, guid: d04ad26d96847ef47904410b08053ec1, type: 3}
      propertyPath: m_LocalPosition.x
      value: 0
      objectReference: {fileID: 0}
    - target: {fileID: 8989471377459135131, guid: d04ad26d96847ef47904410b08053ec1, type: 3}
      propertyPath: m_LocalPosition.y
      value: 0
      objectReference: {fileID: 0}
    - target: {fileID: 8989471377459135131, guid: d04ad26d96847ef47904410b08053ec1, type: 3}
      propertyPath: m_LocalPosition.z
      value: 0
      objectReference: {fileID: 0}
    - target: {fileID: 8989471377459135131, guid: d04ad26d96847ef47904410b08053ec1, type: 3}
      propertyPath: m_LocalRotation.w
      value: 1
      objectReference: {fileID: 0}
    - target: {fileID: 8989471377459135131, guid: d04ad26d96847ef47904410b08053ec1, type: 3}
      propertyPath: m_LocalRotation.x
      value: 0
      objectReference: {fileID: 0}
    - target: {fileID: 8989471377459135131, guid: d04ad26d96847ef47904410b08053ec1, type: 3}
      propertyPath: m_LocalRotation.y
      value: 0
      objectReference: {fileID: 0}
    - target: {fileID: 8989471377459135131, guid: d04ad26d96847ef47904410b08053ec1, type: 3}
      propertyPath: m_LocalRotation.z
      value: 0
      objectReference: {fileID: 0}
    - target: {fileID: 8989471377459135131, guid: d04ad26d96847ef47904410b08053ec1, type: 3}
      propertyPath: m_AnchoredPosition.x
      value: 0
      objectReference: {fileID: 0}
    - target: {fileID: 8989471377459135131, guid: d04ad26d96847ef47904410b08053ec1, type: 3}
      propertyPath: m_AnchoredPosition.y
      value: 0
      objectReference: {fileID: 0}
    - target: {fileID: 8989471377459135131, guid: d04ad26d96847ef47904410b08053ec1, type: 3}
      propertyPath: m_LocalEulerAnglesHint.x
      value: 0
      objectReference: {fileID: 0}
    - target: {fileID: 8989471377459135131, guid: d04ad26d96847ef47904410b08053ec1, type: 3}
      propertyPath: m_LocalEulerAnglesHint.y
      value: 0
      objectReference: {fileID: 0}
    - target: {fileID: 8989471377459135131, guid: d04ad26d96847ef47904410b08053ec1, type: 3}
      propertyPath: m_LocalEulerAnglesHint.z
      value: 0
      objectReference: {fileID: 0}
    - target: {fileID: 8989471377459135207, guid: d04ad26d96847ef47904410b08053ec1, type: 3}
      propertyPath: m_Name
      value: Canvas
      objectReference: {fileID: 0}
    - target: {fileID: 8989471377459135207, guid: d04ad26d96847ef47904410b08053ec1, type: 3}
      propertyPath: m_IsActive
      value: 1
      objectReference: {fileID: 0}
    m_RemovedComponents: []
  m_SourcePrefab: {fileID: 100100000, guid: d04ad26d96847ef47904410b08053ec1, type: 3}
--- !u!1 &751464601 stripped
GameObject:
  m_CorrespondingSourceObject: {fileID: 5990164946506720937, guid: d04ad26d96847ef47904410b08053ec1, type: 3}
  m_PrefabInstance: {fileID: 751464600}
  m_PrefabAsset: {fileID: 0}
--- !u!1 &751464602 stripped
GameObject:
  m_CorrespondingSourceObject: {fileID: 8728385326118096106, guid: d04ad26d96847ef47904410b08053ec1, type: 3}
  m_PrefabInstance: {fileID: 751464600}
  m_PrefabAsset: {fileID: 0}
--- !u!1 &751464603 stripped
GameObject:
  m_CorrespondingSourceObject: {fileID: 3022526310893740839, guid: d04ad26d96847ef47904410b08053ec1, type: 3}
  m_PrefabInstance: {fileID: 751464600}
  m_PrefabAsset: {fileID: 0}
--- !u!1 &771306880
GameObject:
  m_ObjectHideFlags: 0
  m_CorrespondingSourceObject: {fileID: 0}
  m_PrefabInstance: {fileID: 0}
  m_PrefabAsset: {fileID: 0}
  serializedVersion: 6
  m_Component:
  - component: {fileID: 771306884}
  - component: {fileID: 771306883}
  - component: {fileID: 771306882}
  - component: {fileID: 771306881}
  m_Layer: 0
  m_Name: Wall (1)
  m_TagString: Untagged
  m_Icon: {fileID: 0}
  m_NavMeshLayer: 0
  m_StaticEditorFlags: 0
  m_IsActive: 1
--- !u!65 &771306881
BoxCollider:
  m_ObjectHideFlags: 0
  m_CorrespondingSourceObject: {fileID: 0}
  m_PrefabInstance: {fileID: 0}
  m_PrefabAsset: {fileID: 0}
  m_GameObject: {fileID: 771306880}
  m_Material: {fileID: 0}
  m_IsTrigger: 0
  m_Enabled: 1
  serializedVersion: 2
  m_Size: {x: 1, y: 1, z: 1}
  m_Center: {x: 0, y: 0, z: 0}
--- !u!23 &771306882
MeshRenderer:
  m_ObjectHideFlags: 0
  m_CorrespondingSourceObject: {fileID: 0}
  m_PrefabInstance: {fileID: 0}
  m_PrefabAsset: {fileID: 0}
  m_GameObject: {fileID: 771306880}
  m_Enabled: 1
  m_CastShadows: 1
  m_ReceiveShadows: 1
  m_DynamicOccludee: 1
  m_StaticShadowCaster: 0
  m_MotionVectors: 1
  m_LightProbeUsage: 1
  m_ReflectionProbeUsage: 1
  m_RayTracingMode: 2
  m_RayTraceProcedural: 0
  m_RenderingLayerMask: 1
  m_RendererPriority: 0
  m_Materials:
  - {fileID: 2100000, guid: b7e2dfe21f15e9b41a50841963b4e436, type: 2}
  m_StaticBatchInfo:
    firstSubMesh: 0
    subMeshCount: 0
  m_StaticBatchRoot: {fileID: 0}
  m_ProbeAnchor: {fileID: 0}
  m_LightProbeVolumeOverride: {fileID: 0}
  m_ScaleInLightmap: 1
  m_ReceiveGI: 1
  m_PreserveUVs: 0
  m_IgnoreNormalsForChartDetection: 0
  m_ImportantGI: 0
  m_StitchLightmapSeams: 1
  m_SelectedEditorRenderState: 3
  m_MinimumChartSize: 4
  m_AutoUVMaxDistance: 0.5
  m_AutoUVMaxAngle: 89
  m_LightmapParameters: {fileID: 0}
  m_SortingLayerID: 0
  m_SortingLayer: 0
  m_SortingOrder: 0
  m_AdditionalVertexStreams: {fileID: 0}
--- !u!33 &771306883
MeshFilter:
  m_ObjectHideFlags: 0
  m_CorrespondingSourceObject: {fileID: 0}
  m_PrefabInstance: {fileID: 0}
  m_PrefabAsset: {fileID: 0}
  m_GameObject: {fileID: 771306880}
  m_Mesh: {fileID: 10202, guid: 0000000000000000e000000000000000, type: 0}
--- !u!4 &771306884
Transform:
  m_ObjectHideFlags: 0
  m_CorrespondingSourceObject: {fileID: 0}
  m_PrefabInstance: {fileID: 0}
  m_PrefabAsset: {fileID: 0}
  m_GameObject: {fileID: 771306880}
  m_LocalRotation: {x: 0, y: 0.7071068, z: 0, w: 0.7071068}
  m_LocalPosition: {x: 150, y: 12.14, z: 85.11}
  m_LocalScale: {x: 21.657337, y: 3.5742, z: 1}
  m_ConstrainProportionsScale: 0
  m_Children: []
  m_Father: {fileID: 0}
  m_RootOrder: 9
  m_LocalEulerAnglesHint: {x: 0, y: 90, z: 0}
--- !u!1 &811223526 stripped
GameObject:
  m_CorrespondingSourceObject: {fileID: 1629382691136711147, guid: d04ad26d96847ef47904410b08053ec1, type: 3}
  m_PrefabInstance: {fileID: 751464600}
  m_PrefabAsset: {fileID: 0}
--- !u!1001 &815381286
PrefabInstance:
  m_ObjectHideFlags: 0
  serializedVersion: 2
  m_Modification:
    m_TransformParent: {fileID: 0}
    m_Modifications:
    - target: {fileID: 7122898442922194329, guid: d862dff190f463f41a56da7e84429068, type: 3}
      propertyPath: m_Name
      value: PushingObstacle
      objectReference: {fileID: 0}
    - target: {fileID: 7122898442922194330, guid: d862dff190f463f41a56da7e84429068, type: 3}
      propertyPath: m_RootOrder
      value: 21
      objectReference: {fileID: 0}
    - target: {fileID: 7122898442922194330, guid: d862dff190f463f41a56da7e84429068, type: 3}
      propertyPath: m_LocalPosition.x
      value: 162.22
      objectReference: {fileID: 0}
    - target: {fileID: 7122898442922194330, guid: d862dff190f463f41a56da7e84429068, type: 3}
      propertyPath: m_LocalPosition.y
      value: 12.151
      objectReference: {fileID: 0}
    - target: {fileID: 7122898442922194330, guid: d862dff190f463f41a56da7e84429068, type: 3}
      propertyPath: m_LocalPosition.z
      value: 77.76
      objectReference: {fileID: 0}
    - target: {fileID: 7122898442922194330, guid: d862dff190f463f41a56da7e84429068, type: 3}
      propertyPath: m_LocalRotation.w
      value: 1
      objectReference: {fileID: 0}
    - target: {fileID: 7122898442922194330, guid: d862dff190f463f41a56da7e84429068, type: 3}
      propertyPath: m_LocalRotation.x
      value: 0
      objectReference: {fileID: 0}
    - target: {fileID: 7122898442922194330, guid: d862dff190f463f41a56da7e84429068, type: 3}
      propertyPath: m_LocalRotation.y
      value: 0
      objectReference: {fileID: 0}
    - target: {fileID: 7122898442922194330, guid: d862dff190f463f41a56da7e84429068, type: 3}
      propertyPath: m_LocalRotation.z
      value: 0
      objectReference: {fileID: 0}
    - target: {fileID: 7122898442922194330, guid: d862dff190f463f41a56da7e84429068, type: 3}
      propertyPath: m_LocalEulerAnglesHint.x
      value: 0
      objectReference: {fileID: 0}
    - target: {fileID: 7122898442922194330, guid: d862dff190f463f41a56da7e84429068, type: 3}
      propertyPath: m_LocalEulerAnglesHint.y
      value: 0
      objectReference: {fileID: 0}
    - target: {fileID: 7122898442922194330, guid: d862dff190f463f41a56da7e84429068, type: 3}
      propertyPath: m_LocalEulerAnglesHint.z
      value: 0
      objectReference: {fileID: 0}
    - target: {fileID: 7122898444190968838, guid: d862dff190f463f41a56da7e84429068, type: 3}
      propertyPath: m_LocalScale.x
      value: 4.1525273
      objectReference: {fileID: 0}
    - target: {fileID: 7122898444190968838, guid: d862dff190f463f41a56da7e84429068, type: 3}
      propertyPath: m_LocalPosition.x
      value: -0.47
      objectReference: {fileID: 0}
    m_RemovedComponents: []
  m_SourcePrefab: {fileID: 100100000, guid: d862dff190f463f41a56da7e84429068, type: 3}
--- !u!1001 &816520265
PrefabInstance:
  m_ObjectHideFlags: 0
  serializedVersion: 2
  m_Modification:
    m_TransformParent: {fileID: 0}
    m_Modifications:
    - target: {fileID: 1114042122310947171, guid: cb8b7274e69294d4ab3f953cf13d7c55, type: 3}
      propertyPath: FailUI
      value: 
      objectReference: {fileID: 751464603}
    - target: {fileID: 4845973521918848056, guid: cb8b7274e69294d4ab3f953cf13d7c55, type: 3}
      propertyPath: m_Name
      value: Spikes
      objectReference: {fileID: 0}
    - target: {fileID: 4845973521918848059, guid: cb8b7274e69294d4ab3f953cf13d7c55, type: 3}
      propertyPath: m_RootOrder
      value: 14
      objectReference: {fileID: 0}
    - target: {fileID: 4845973521918848059, guid: cb8b7274e69294d4ab3f953cf13d7c55, type: 3}
      propertyPath: m_LocalPosition.x
      value: 139.89
      objectReference: {fileID: 0}
    - target: {fileID: 4845973521918848059, guid: cb8b7274e69294d4ab3f953cf13d7c55, type: 3}
      propertyPath: m_LocalPosition.y
      value: 10.8
      objectReference: {fileID: 0}
    - target: {fileID: 4845973521918848059, guid: cb8b7274e69294d4ab3f953cf13d7c55, type: 3}
      propertyPath: m_LocalPosition.z
      value: 78.37
      objectReference: {fileID: 0}
    - target: {fileID: 4845973521918848059, guid: cb8b7274e69294d4ab3f953cf13d7c55, type: 3}
      propertyPath: m_LocalRotation.w
      value: 1
      objectReference: {fileID: 0}
    - target: {fileID: 4845973521918848059, guid: cb8b7274e69294d4ab3f953cf13d7c55, type: 3}
      propertyPath: m_LocalRotation.x
      value: 0
      objectReference: {fileID: 0}
    - target: {fileID: 4845973521918848059, guid: cb8b7274e69294d4ab3f953cf13d7c55, type: 3}
      propertyPath: m_LocalRotation.y
      value: 0
      objectReference: {fileID: 0}
    - target: {fileID: 4845973521918848059, guid: cb8b7274e69294d4ab3f953cf13d7c55, type: 3}
      propertyPath: m_LocalRotation.z
      value: 0
      objectReference: {fileID: 0}
    - target: {fileID: 4845973521918848059, guid: cb8b7274e69294d4ab3f953cf13d7c55, type: 3}
      propertyPath: m_LocalEulerAnglesHint.x
      value: 0
      objectReference: {fileID: 0}
    - target: {fileID: 4845973521918848059, guid: cb8b7274e69294d4ab3f953cf13d7c55, type: 3}
      propertyPath: m_LocalEulerAnglesHint.y
      value: 0
      objectReference: {fileID: 0}
    - target: {fileID: 4845973521918848059, guid: cb8b7274e69294d4ab3f953cf13d7c55, type: 3}
      propertyPath: m_LocalEulerAnglesHint.z
      value: 0
      objectReference: {fileID: 0}
    m_RemovedComponents: []
  m_SourcePrefab: {fileID: 100100000, guid: cb8b7274e69294d4ab3f953cf13d7c55, type: 3}
--- !u!1001 &873907705
PrefabInstance:
  m_ObjectHideFlags: 0
  serializedVersion: 2
  m_Modification:
    m_TransformParent: {fileID: 0}
    m_Modifications:
    - target: {fileID: 4851864226288995874, guid: a118ade0af99550498c02ae410e5c750, type: 3}
      propertyPath: m_Name
      value: Door (1)
      objectReference: {fileID: 0}
    - target: {fileID: 4851864226288995874, guid: a118ade0af99550498c02ae410e5c750, type: 3}
      propertyPath: m_IsActive
      value: 0
      objectReference: {fileID: 0}
    - target: {fileID: 4851864226288995874, guid: a118ade0af99550498c02ae410e5c750, type: 3}
      propertyPath: m_TagString
      value: Door2
      objectReference: {fileID: 0}
    - target: {fileID: 5074960416861037400, guid: a118ade0af99550498c02ae410e5c750, type: 3}
      propertyPath: m_RootOrder
      value: 13
      objectReference: {fileID: 0}
    - target: {fileID: 5074960416861037400, guid: a118ade0af99550498c02ae410e5c750, type: 3}
      propertyPath: m_LocalPosition.x
      value: 162.39
      objectReference: {fileID: 0}
    - target: {fileID: 5074960416861037400, guid: a118ade0af99550498c02ae410e5c750, type: 3}
      propertyPath: m_LocalPosition.y
      value: 12.14
      objectReference: {fileID: 0}
    - target: {fileID: 5074960416861037400, guid: a118ade0af99550498c02ae410e5c750, type: 3}
      propertyPath: m_LocalPosition.z
      value: 74.14
      objectReference: {fileID: 0}
    - target: {fileID: 5074960416861037400, guid: a118ade0af99550498c02ae410e5c750, type: 3}
      propertyPath: m_LocalRotation.w
      value: 1
      objectReference: {fileID: 0}
    - target: {fileID: 5074960416861037400, guid: a118ade0af99550498c02ae410e5c750, type: 3}
      propertyPath: m_LocalRotation.x
      value: 0
      objectReference: {fileID: 0}
    - target: {fileID: 5074960416861037400, guid: a118ade0af99550498c02ae410e5c750, type: 3}
      propertyPath: m_LocalRotation.y
      value: 0
      objectReference: {fileID: 0}
    - target: {fileID: 5074960416861037400, guid: a118ade0af99550498c02ae410e5c750, type: 3}
      propertyPath: m_LocalRotation.z
      value: 0
      objectReference: {fileID: 0}
    - target: {fileID: 5074960416861037400, guid: a118ade0af99550498c02ae410e5c750, type: 3}
      propertyPath: m_LocalEulerAnglesHint.x
      value: 0
      objectReference: {fileID: 0}
    - target: {fileID: 5074960416861037400, guid: a118ade0af99550498c02ae410e5c750, type: 3}
      propertyPath: m_LocalEulerAnglesHint.y
      value: 0
      objectReference: {fileID: 0}
    - target: {fileID: 5074960416861037400, guid: a118ade0af99550498c02ae410e5c750, type: 3}
      propertyPath: m_LocalEulerAnglesHint.z
      value: 0
      objectReference: {fileID: 0}
    m_RemovedComponents: []
  m_SourcePrefab: {fileID: 100100000, guid: a118ade0af99550498c02ae410e5c750, type: 3}
--- !u!1001 &875596561
PrefabInstance:
  m_ObjectHideFlags: 0
  serializedVersion: 2
  m_Modification:
    m_TransformParent: {fileID: 0}
    m_Modifications:
    - target: {fileID: 1333864530920746596, guid: c13e18a3156e8e1498bdb2ef2a732100, type: 3}
      propertyPath: m_RootOrder
      value: 6
      objectReference: {fileID: 0}
    - target: {fileID: 1333864530920746596, guid: c13e18a3156e8e1498bdb2ef2a732100, type: 3}
      propertyPath: m_LocalPosition.x
      value: 150
      objectReference: {fileID: 0}
    - target: {fileID: 1333864530920746596, guid: c13e18a3156e8e1498bdb2ef2a732100, type: 3}
      propertyPath: m_LocalPosition.y
      value: 10.093
      objectReference: {fileID: 0}
    - target: {fileID: 1333864530920746596, guid: c13e18a3156e8e1498bdb2ef2a732100, type: 3}
      propertyPath: m_LocalPosition.z
      value: 112.5
      objectReference: {fileID: 0}
    - target: {fileID: 1333864530920746596, guid: c13e18a3156e8e1498bdb2ef2a732100, type: 3}
      propertyPath: m_LocalRotation.w
      value: 1
      objectReference: {fileID: 0}
    - target: {fileID: 1333864530920746596, guid: c13e18a3156e8e1498bdb2ef2a732100, type: 3}
      propertyPath: m_LocalRotation.x
      value: 0
      objectReference: {fileID: 0}
    - target: {fileID: 1333864530920746596, guid: c13e18a3156e8e1498bdb2ef2a732100, type: 3}
      propertyPath: m_LocalRotation.y
      value: 0
      objectReference: {fileID: 0}
    - target: {fileID: 1333864530920746596, guid: c13e18a3156e8e1498bdb2ef2a732100, type: 3}
      propertyPath: m_LocalRotation.z
      value: 0
      objectReference: {fileID: 0}
    - target: {fileID: 1333864530920746596, guid: c13e18a3156e8e1498bdb2ef2a732100, type: 3}
      propertyPath: m_LocalEulerAnglesHint.x
      value: 0
      objectReference: {fileID: 0}
    - target: {fileID: 1333864530920746596, guid: c13e18a3156e8e1498bdb2ef2a732100, type: 3}
      propertyPath: m_LocalEulerAnglesHint.y
      value: 0
      objectReference: {fileID: 0}
    - target: {fileID: 1333864530920746596, guid: c13e18a3156e8e1498bdb2ef2a732100, type: 3}
      propertyPath: m_LocalEulerAnglesHint.z
      value: 0
      objectReference: {fileID: 0}
    - target: {fileID: 1333864530920746597, guid: c13e18a3156e8e1498bdb2ef2a732100, type: 3}
      propertyPath: FinishCountdown
      value: 
      objectReference: {fileID: 751464602}
    - target: {fileID: 1333864530920746597, guid: c13e18a3156e8e1498bdb2ef2a732100, type: 3}
      propertyPath: FinishCountdownText
      value: 
      objectReference: {fileID: 751464601}
    - target: {fileID: 1333864530920746597, guid: c13e18a3156e8e1498bdb2ef2a732100, type: 3}
      propertyPath: NextLevelEvent.m_PersistentCalls.m_Calls.Array.data[0].m_Mode
      value: 3
      objectReference: {fileID: 0}
    - target: {fileID: 1333864530920746597, guid: c13e18a3156e8e1498bdb2ef2a732100, type: 3}
      propertyPath: NextLevelEvent.m_PersistentCalls.m_Calls.Array.data[0].m_Target
      value: 
      objectReference: {fileID: 1455511026}
    - target: {fileID: 1333864530920746597, guid: c13e18a3156e8e1498bdb2ef2a732100, type: 3}
      propertyPath: NextLevelEvent.m_PersistentCalls.m_Calls.Array.data[0].m_MethodName
      value: LoadLevel
      objectReference: {fileID: 0}
    - target: {fileID: 1333864530920746597, guid: c13e18a3156e8e1498bdb2ef2a732100, type: 3}
      propertyPath: NextLevelEvent.m_PersistentCalls.m_Calls.Array.data[0].m_Arguments.m_IntArgument
      value: 4
      objectReference: {fileID: 0}
    - target: {fileID: 1333864530920746616, guid: c13e18a3156e8e1498bdb2ef2a732100, type: 3}
      propertyPath: m_Name
      value: FinishZone
      objectReference: {fileID: 0}
    m_RemovedComponents: []
  m_SourcePrefab: {fileID: 100100000, guid: c13e18a3156e8e1498bdb2ef2a732100, type: 3}
--- !u!1001 &888901374
PrefabInstance:
  m_ObjectHideFlags: 0
  serializedVersion: 2
  m_Modification:
    m_TransformParent: {fileID: 0}
    m_Modifications:
    - target: {fileID: 1114042122310947171, guid: cb8b7274e69294d4ab3f953cf13d7c55, type: 3}
      propertyPath: FailUI
      value: 
      objectReference: {fileID: 751464603}
    - target: {fileID: 4845973521918848056, guid: cb8b7274e69294d4ab3f953cf13d7c55, type: 3}
      propertyPath: m_Name
      value: Spikes (1)
      objectReference: {fileID: 0}
    - target: {fileID: 4845973521918848059, guid: cb8b7274e69294d4ab3f953cf13d7c55, type: 3}
      propertyPath: m_RootOrder
      value: 15
      objectReference: {fileID: 0}
    - target: {fileID: 4845973521918848059, guid: cb8b7274e69294d4ab3f953cf13d7c55, type: 3}
      propertyPath: m_LocalPosition.x
      value: 137.74
      objectReference: {fileID: 0}
    - target: {fileID: 4845973521918848059, guid: cb8b7274e69294d4ab3f953cf13d7c55, type: 3}
      propertyPath: m_LocalPosition.y
      value: 10.8
      objectReference: {fileID: 0}
    - target: {fileID: 4845973521918848059, guid: cb8b7274e69294d4ab3f953cf13d7c55, type: 3}
      propertyPath: m_LocalPosition.z
      value: 85.48
      objectReference: {fileID: 0}
    - target: {fileID: 4845973521918848059, guid: cb8b7274e69294d4ab3f953cf13d7c55, type: 3}
      propertyPath: m_LocalRotation.w
      value: 1
      objectReference: {fileID: 0}
    - target: {fileID: 4845973521918848059, guid: cb8b7274e69294d4ab3f953cf13d7c55, type: 3}
      propertyPath: m_LocalRotation.x
      value: 0
      objectReference: {fileID: 0}
    - target: {fileID: 4845973521918848059, guid: cb8b7274e69294d4ab3f953cf13d7c55, type: 3}
      propertyPath: m_LocalRotation.y
      value: 0
      objectReference: {fileID: 0}
    - target: {fileID: 4845973521918848059, guid: cb8b7274e69294d4ab3f953cf13d7c55, type: 3}
      propertyPath: m_LocalRotation.z
      value: 0
      objectReference: {fileID: 0}
    - target: {fileID: 4845973521918848059, guid: cb8b7274e69294d4ab3f953cf13d7c55, type: 3}
      propertyPath: m_LocalEulerAnglesHint.x
      value: 0
      objectReference: {fileID: 0}
    - target: {fileID: 4845973521918848059, guid: cb8b7274e69294d4ab3f953cf13d7c55, type: 3}
      propertyPath: m_LocalEulerAnglesHint.y
      value: 0
      objectReference: {fileID: 0}
    - target: {fileID: 4845973521918848059, guid: cb8b7274e69294d4ab3f953cf13d7c55, type: 3}
      propertyPath: m_LocalEulerAnglesHint.z
      value: 0
      objectReference: {fileID: 0}
    m_RemovedComponents: []
  m_SourcePrefab: {fileID: 100100000, guid: cb8b7274e69294d4ab3f953cf13d7c55, type: 3}
--- !u!1001 &945262712
PrefabInstance:
  m_ObjectHideFlags: 0
  serializedVersion: 2
  m_Modification:
    m_TransformParent: {fileID: 0}
    m_Modifications:
    - target: {fileID: 1114042122310947171, guid: cb8b7274e69294d4ab3f953cf13d7c55, type: 3}
      propertyPath: FailUI
      value: 
      objectReference: {fileID: 751464603}
    - target: {fileID: 4845973521918848056, guid: cb8b7274e69294d4ab3f953cf13d7c55, type: 3}
      propertyPath: m_Name
      value: Spikes (4)
      objectReference: {fileID: 0}
    - target: {fileID: 4845973521918848059, guid: cb8b7274e69294d4ab3f953cf13d7c55, type: 3}
      propertyPath: m_RootOrder
      value: 18
      objectReference: {fileID: 0}
    - target: {fileID: 4845973521918848059, guid: cb8b7274e69294d4ab3f953cf13d7c55, type: 3}
      propertyPath: m_LocalPosition.x
      value: 146.39
      objectReference: {fileID: 0}
    - target: {fileID: 4845973521918848059, guid: cb8b7274e69294d4ab3f953cf13d7c55, type: 3}
      propertyPath: m_LocalPosition.y
      value: 10.8
      objectReference: {fileID: 0}
    - target: {fileID: 4845973521918848059, guid: cb8b7274e69294d4ab3f953cf13d7c55, type: 3}
      propertyPath: m_LocalPosition.z
      value: 92.64
      objectReference: {fileID: 0}
    - target: {fileID: 4845973521918848059, guid: cb8b7274e69294d4ab3f953cf13d7c55, type: 3}
      propertyPath: m_LocalRotation.w
      value: 1
      objectReference: {fileID: 0}
    - target: {fileID: 4845973521918848059, guid: cb8b7274e69294d4ab3f953cf13d7c55, type: 3}
      propertyPath: m_LocalRotation.x
      value: 0
      objectReference: {fileID: 0}
    - target: {fileID: 4845973521918848059, guid: cb8b7274e69294d4ab3f953cf13d7c55, type: 3}
      propertyPath: m_LocalRotation.y
      value: 0
      objectReference: {fileID: 0}
    - target: {fileID: 4845973521918848059, guid: cb8b7274e69294d4ab3f953cf13d7c55, type: 3}
      propertyPath: m_LocalRotation.z
      value: 0
      objectReference: {fileID: 0}
    - target: {fileID: 4845973521918848059, guid: cb8b7274e69294d4ab3f953cf13d7c55, type: 3}
      propertyPath: m_LocalEulerAnglesHint.x
      value: 0
      objectReference: {fileID: 0}
    - target: {fileID: 4845973521918848059, guid: cb8b7274e69294d4ab3f953cf13d7c55, type: 3}
      propertyPath: m_LocalEulerAnglesHint.y
      value: 0
      objectReference: {fileID: 0}
    - target: {fileID: 4845973521918848059, guid: cb8b7274e69294d4ab3f953cf13d7c55, type: 3}
      propertyPath: m_LocalEulerAnglesHint.z
      value: 0
      objectReference: {fileID: 0}
    m_RemovedComponents: []
  m_SourcePrefab: {fileID: 100100000, guid: cb8b7274e69294d4ab3f953cf13d7c55, type: 3}
--- !u!1001 &1004930059
PrefabInstance:
  m_ObjectHideFlags: 0
  serializedVersion: 2
  m_Modification:
    m_TransformParent: {fileID: 0}
    m_Modifications:
    - target: {fileID: 6321884510510418223, guid: ad1915ac5c7cc1043ba0eaaf2f540cc7, type: 3}
      propertyPath: m_Name
      value: Player
      objectReference: {fileID: 0}
    - target: {fileID: 6321884510510418225, guid: ad1915ac5c7cc1043ba0eaaf2f540cc7, type: 3}
      propertyPath: m_RootOrder
      value: 3
      objectReference: {fileID: 0}
    - target: {fileID: 6321884510510418225, guid: ad1915ac5c7cc1043ba0eaaf2f540cc7, type: 3}
      propertyPath: m_LocalPosition.x
      value: 150
      objectReference: {fileID: 0}
    - target: {fileID: 6321884510510418225, guid: ad1915ac5c7cc1043ba0eaaf2f540cc7, type: 3}
      propertyPath: m_LocalPosition.y
      value: 12.83
      objectReference: {fileID: 0}
    - target: {fileID: 6321884510510418225, guid: ad1915ac5c7cc1043ba0eaaf2f540cc7, type: 3}
      propertyPath: m_LocalPosition.z
      value: 67.68
      objectReference: {fileID: 0}
    - target: {fileID: 6321884510510418225, guid: ad1915ac5c7cc1043ba0eaaf2f540cc7, type: 3}
      propertyPath: m_LocalRotation.w
      value: 1
      objectReference: {fileID: 0}
    - target: {fileID: 6321884510510418225, guid: ad1915ac5c7cc1043ba0eaaf2f540cc7, type: 3}
      propertyPath: m_LocalRotation.x
      value: 0
      objectReference: {fileID: 0}
    - target: {fileID: 6321884510510418225, guid: ad1915ac5c7cc1043ba0eaaf2f540cc7, type: 3}
      propertyPath: m_LocalRotation.y
      value: 0
      objectReference: {fileID: 0}
    - target: {fileID: 6321884510510418225, guid: ad1915ac5c7cc1043ba0eaaf2f540cc7, type: 3}
      propertyPath: m_LocalRotation.z
      value: 0
      objectReference: {fileID: 0}
    - target: {fileID: 6321884510510418225, guid: ad1915ac5c7cc1043ba0eaaf2f540cc7, type: 3}
      propertyPath: m_LocalEulerAnglesHint.x
      value: 0
      objectReference: {fileID: 0}
    - target: {fileID: 6321884510510418225, guid: ad1915ac5c7cc1043ba0eaaf2f540cc7, type: 3}
      propertyPath: m_LocalEulerAnglesHint.y
      value: 0
      objectReference: {fileID: 0}
    - target: {fileID: 6321884510510418225, guid: ad1915ac5c7cc1043ba0eaaf2f540cc7, type: 3}
      propertyPath: m_LocalEulerAnglesHint.z
      value: 0
      objectReference: {fileID: 0}
    m_RemovedComponents: []
  m_SourcePrefab: {fileID: 100100000, guid: ad1915ac5c7cc1043ba0eaaf2f540cc7, type: 3}
--- !u!4 &1004930060 stripped
Transform:
  m_CorrespondingSourceObject: {fileID: 6321884510510418225, guid: ad1915ac5c7cc1043ba0eaaf2f540cc7, type: 3}
  m_PrefabInstance: {fileID: 1004930059}
  m_PrefabAsset: {fileID: 0}
--- !u!1 &1065073005
GameObject:
  m_ObjectHideFlags: 0
  m_CorrespondingSourceObject: {fileID: 0}
  m_PrefabInstance: {fileID: 0}
  m_PrefabAsset: {fileID: 0}
  serializedVersion: 6
  m_Component:
  - component: {fileID: 1065073009}
  - component: {fileID: 1065073008}
  - component: {fileID: 1065073007}
  - component: {fileID: 1065073006}
  m_Layer: 0
  m_Name: Main Camera
  m_TagString: MainCamera
  m_Icon: {fileID: 0}
  m_NavMeshLayer: 0
  m_StaticEditorFlags: 0
  m_IsActive: 1
--- !u!114 &1065073006
MonoBehaviour:
  m_ObjectHideFlags: 0
  m_CorrespondingSourceObject: {fileID: 0}
  m_PrefabInstance: {fileID: 0}
  m_PrefabAsset: {fileID: 0}
  m_GameObject: {fileID: 1065073005}
  m_Enabled: 1
  m_EditorHideFlags: 0
  m_Script: {fileID: 11500000, guid: a9572b80f48b6e64abea44952dcc2909, type: 3}
  m_Name: 
  m_EditorClassIdentifier: 
  playerTransform: {fileID: 1004930060}
--- !u!81 &1065073007
AudioListener:
  m_ObjectHideFlags: 0
  m_CorrespondingSourceObject: {fileID: 0}
  m_PrefabInstance: {fileID: 0}
  m_PrefabAsset: {fileID: 0}
  m_GameObject: {fileID: 1065073005}
  m_Enabled: 1
--- !u!20 &1065073008
Camera:
  m_ObjectHideFlags: 0
  m_CorrespondingSourceObject: {fileID: 0}
  m_PrefabInstance: {fileID: 0}
  m_PrefabAsset: {fileID: 0}
  m_GameObject: {fileID: 1065073005}
  m_Enabled: 1
  serializedVersion: 2
  m_ClearFlags: 1
  m_BackGroundColor: {r: 0.19215687, g: 0.3019608, b: 0.4745098, a: 0}
  m_projectionMatrixMode: 1
  m_GateFitMode: 2
  m_FOVAxisMode: 0
  m_SensorSize: {x: 36, y: 24}
  m_LensShift: {x: 0, y: 0}
  m_FocalLength: 50
  m_NormalizedViewPortRect:
    serializedVersion: 2
    x: 0
    y: 0
    width: 1
    height: 1
  near clip plane: 0.3
  far clip plane: 1000
  field of view: 60
  orthographic: 0
  orthographic size: 5
  m_Depth: -1
  m_CullingMask:
    serializedVersion: 2
    m_Bits: 4294967295
  m_RenderingPath: -1
  m_TargetTexture: {fileID: 0}
  m_TargetDisplay: 0
  m_TargetEye: 3
  m_HDR: 1
  m_AllowMSAA: 1
  m_AllowDynamicResolution: 0
  m_ForceIntoRT: 0
  m_OcclusionCulling: 1
  m_StereoConvergence: 10
  m_StereoSeparation: 0.022
--- !u!4 &1065073009
Transform:
  m_ObjectHideFlags: 0
  m_CorrespondingSourceObject: {fileID: 0}
  m_PrefabInstance: {fileID: 0}
  m_PrefabAsset: {fileID: 0}
  m_GameObject: {fileID: 1065073005}
  m_LocalRotation: {x: 0.2588191, y: -0, z: -0, w: 0.9659258}
  m_LocalPosition: {x: 150.52, y: 18.91, z: 58.1}
  m_LocalScale: {x: 1, y: 1, z: 1}
  m_ConstrainProportionsScale: 0
  m_Children: []
  m_Father: {fileID: 0}
  m_RootOrder: 5
  m_LocalEulerAnglesHint: {x: 30, y: 0, z: 0}
--- !u!1 &1242588415
GameObject:
  m_ObjectHideFlags: 0
  m_CorrespondingSourceObject: {fileID: 0}
  m_PrefabInstance: {fileID: 0}
  m_PrefabAsset: {fileID: 0}
  serializedVersion: 6
  m_Component:
  - component: {fileID: 1242588419}
  - component: {fileID: 1242588418}
  - component: {fileID: 1242588417}
  - component: {fileID: 1242588416}
  m_Layer: 0
  m_Name: Wall (2)
  m_TagString: Untagged
  m_Icon: {fileID: 0}
  m_NavMeshLayer: 0
  m_StaticEditorFlags: 0
  m_IsActive: 1
--- !u!65 &1242588416
BoxCollider:
  m_ObjectHideFlags: 0
  m_CorrespondingSourceObject: {fileID: 0}
  m_PrefabInstance: {fileID: 0}
  m_PrefabAsset: {fileID: 0}
  m_GameObject: {fileID: 1242588415}
  m_Material: {fileID: 0}
  m_IsTrigger: 0
  m_Enabled: 1
  serializedVersion: 2
  m_Size: {x: 1, y: 1, z: 1}
  m_Center: {x: 0, y: 0, z: 0}
--- !u!23 &1242588417
MeshRenderer:
  m_ObjectHideFlags: 0
  m_CorrespondingSourceObject: {fileID: 0}
  m_PrefabInstance: {fileID: 0}
  m_PrefabAsset: {fileID: 0}
  m_GameObject: {fileID: 1242588415}
  m_Enabled: 1
  m_CastShadows: 1
  m_ReceiveShadows: 1
  m_DynamicOccludee: 1
  m_StaticShadowCaster: 0
  m_MotionVectors: 1
  m_LightProbeUsage: 1
  m_ReflectionProbeUsage: 1
  m_RayTracingMode: 2
  m_RayTraceProcedural: 0
  m_RenderingLayerMask: 1
  m_RendererPriority: 0
  m_Materials:
  - {fileID: 2100000, guid: b7e2dfe21f15e9b41a50841963b4e436, type: 2}
  m_StaticBatchInfo:
    firstSubMesh: 0
    subMeshCount: 0
  m_StaticBatchRoot: {fileID: 0}
  m_ProbeAnchor: {fileID: 0}
  m_LightProbeVolumeOverride: {fileID: 0}
  m_ScaleInLightmap: 1
  m_ReceiveGI: 1
  m_PreserveUVs: 0
  m_IgnoreNormalsForChartDetection: 0
  m_ImportantGI: 0
  m_StitchLightmapSeams: 1
  m_SelectedEditorRenderState: 3
  m_MinimumChartSize: 4
  m_AutoUVMaxDistance: 0.5
  m_AutoUVMaxAngle: 89
  m_LightmapParameters: {fileID: 0}
  m_SortingLayerID: 0
  m_SortingLayer: 0
  m_SortingOrder: 0
  m_AdditionalVertexStreams: {fileID: 0}
--- !u!33 &1242588418
MeshFilter:
  m_ObjectHideFlags: 0
  m_CorrespondingSourceObject: {fileID: 0}
  m_PrefabInstance: {fileID: 0}
  m_PrefabAsset: {fileID: 0}
  m_GameObject: {fileID: 1242588415}
  m_Mesh: {fileID: 10202, guid: 0000000000000000e000000000000000, type: 0}
--- !u!4 &1242588419
Transform:
  m_ObjectHideFlags: 0
  m_CorrespondingSourceObject: {fileID: 0}
  m_PrefabInstance: {fileID: 0}
  m_PrefabAsset: {fileID: 0}
  m_GameObject: {fileID: 1242588415}
  m_LocalRotation: {x: 0, y: 0, z: 0, w: 1}
  m_LocalPosition: {x: 150, y: 12.14, z: 96.16}
  m_LocalScale: {x: 19.460272, y: 3.5742, z: 1}
  m_ConstrainProportionsScale: 0
  m_Children: []
  m_Father: {fileID: 0}
  m_RootOrder: 10
  m_LocalEulerAnglesHint: {x: 0, y: 0, z: 0}
--- !u!1001 &1248418665
PrefabInstance:
  m_ObjectHideFlags: 0
  serializedVersion: 2
  m_Modification:
    m_TransformParent: {fileID: 0}
    m_Modifications:
    - target: {fileID: 1114042122310947171, guid: cb8b7274e69294d4ab3f953cf13d7c55, type: 3}
      propertyPath: FailUI
      value: 
      objectReference: {fileID: 751464603}
    - target: {fileID: 4845973521918848056, guid: cb8b7274e69294d4ab3f953cf13d7c55, type: 3}
      propertyPath: m_Name
      value: Spikes (3)
      objectReference: {fileID: 0}
    - target: {fileID: 4845973521918848059, guid: cb8b7274e69294d4ab3f953cf13d7c55, type: 3}
      propertyPath: m_RootOrder
      value: 17
      objectReference: {fileID: 0}
    - target: {fileID: 4845973521918848059, guid: cb8b7274e69294d4ab3f953cf13d7c55, type: 3}
      propertyPath: m_LocalPosition.x
      value: 146.02
      objectReference: {fileID: 0}
    - target: {fileID: 4845973521918848059, guid: cb8b7274e69294d4ab3f953cf13d7c55, type: 3}
      propertyPath: m_LocalPosition.y
      value: 10.8
      objectReference: {fileID: 0}
    - target: {fileID: 4845973521918848059, guid: cb8b7274e69294d4ab3f953cf13d7c55, type: 3}
      propertyPath: m_LocalPosition.z
      value: 78.37
      objectReference: {fileID: 0}
    - target: {fileID: 4845973521918848059, guid: cb8b7274e69294d4ab3f953cf13d7c55, type: 3}
      propertyPath: m_LocalRotation.w
      value: 1
      objectReference: {fileID: 0}
    - target: {fileID: 4845973521918848059, guid: cb8b7274e69294d4ab3f953cf13d7c55, type: 3}
      propertyPath: m_LocalRotation.x
      value: 0
      objectReference: {fileID: 0}
    - target: {fileID: 4845973521918848059, guid: cb8b7274e69294d4ab3f953cf13d7c55, type: 3}
      propertyPath: m_LocalRotation.y
      value: 0
      objectReference: {fileID: 0}
    - target: {fileID: 4845973521918848059, guid: cb8b7274e69294d4ab3f953cf13d7c55, type: 3}
      propertyPath: m_LocalRotation.z
      value: 0
      objectReference: {fileID: 0}
    - target: {fileID: 4845973521918848059, guid: cb8b7274e69294d4ab3f953cf13d7c55, type: 3}
      propertyPath: m_LocalEulerAnglesHint.x
      value: 0
      objectReference: {fileID: 0}
    - target: {fileID: 4845973521918848059, guid: cb8b7274e69294d4ab3f953cf13d7c55, type: 3}
      propertyPath: m_LocalEulerAnglesHint.y
      value: 0
      objectReference: {fileID: 0}
    - target: {fileID: 4845973521918848059, guid: cb8b7274e69294d4ab3f953cf13d7c55, type: 3}
      propertyPath: m_LocalEulerAnglesHint.z
      value: 0
      objectReference: {fileID: 0}
    m_RemovedComponents: []
  m_SourcePrefab: {fileID: 100100000, guid: cb8b7274e69294d4ab3f953cf13d7c55, type: 3}
--- !u!1 &1313564754
GameObject:
  m_ObjectHideFlags: 0
  m_CorrespondingSourceObject: {fileID: 0}
  m_PrefabInstance: {fileID: 0}
  m_PrefabAsset: {fileID: 0}
  serializedVersion: 6
  m_Component:
  - component: {fileID: 1313564756}
  - component: {fileID: 1313564755}
  m_Layer: 0
  m_Name: Directional Light
  m_TagString: Untagged
  m_Icon: {fileID: 0}
  m_NavMeshLayer: 0
  m_StaticEditorFlags: 0
  m_IsActive: 1
--- !u!108 &1313564755
Light:
  m_ObjectHideFlags: 0
  m_CorrespondingSourceObject: {fileID: 0}
  m_PrefabInstance: {fileID: 0}
  m_PrefabAsset: {fileID: 0}
  m_GameObject: {fileID: 1313564754}
  m_Enabled: 1
  serializedVersion: 10
  m_Type: 1
  m_Shape: 0
  m_Color: {r: 1, g: 0.95686275, b: 0.8392157, a: 1}
  m_Intensity: 1
  m_Range: 10
  m_SpotAngle: 30
  m_InnerSpotAngle: 21.80208
  m_CookieSize: 10
  m_Shadows:
    m_Type: 2
    m_Resolution: -1
    m_CustomResolution: -1
    m_Strength: 1
    m_Bias: 0.05
    m_NormalBias: 0.4
    m_NearPlane: 0.2
    m_CullingMatrixOverride:
      e00: 1
      e01: 0
      e02: 0
      e03: 0
      e10: 0
      e11: 1
      e12: 0
      e13: 0
      e20: 0
      e21: 0
      e22: 1
      e23: 0
      e30: 0
      e31: 0
      e32: 0
      e33: 1
    m_UseCullingMatrixOverride: 0
  m_Cookie: {fileID: 0}
  m_DrawHalo: 0
  m_Flare: {fileID: 0}
  m_RenderMode: 0
  m_CullingMask:
    serializedVersion: 2
    m_Bits: 4294967295
  m_RenderingLayerMask: 1
  m_Lightmapping: 4
  m_LightShadowCasterMode: 0
  m_AreaSize: {x: 1, y: 1}
  m_BounceIntensity: 1
  m_ColorTemperature: 6570
  m_UseColorTemperature: 0
  m_BoundingSphereOverride: {x: 0, y: 0, z: 0, w: 0}
  m_UseBoundingSphereOverride: 0
  m_UseViewFrustumForShadowCasterCull: 1
  m_ShadowRadius: 0
  m_ShadowAngle: 0
--- !u!4 &1313564756
Transform:
  m_ObjectHideFlags: 0
  m_CorrespondingSourceObject: {fileID: 0}
  m_PrefabInstance: {fileID: 0}
  m_PrefabAsset: {fileID: 0}
  m_GameObject: {fileID: 1313564754}
  m_LocalRotation: {x: 0.40821788, y: -0.23456968, z: 0.10938163, w: 0.8754261}
  m_LocalPosition: {x: 0, y: 3, z: 0}
  m_LocalScale: {x: 1, y: 1, z: 1}
  m_ConstrainProportionsScale: 0
  m_Children: []
  m_Father: {fileID: 0}
  m_RootOrder: 0
  m_LocalEulerAnglesHint: {x: 50, y: -30, z: 0}
--- !u!1 &1424884398 stripped
GameObject:
  m_CorrespondingSourceObject: {fileID: 4851864226288995874, guid: a118ade0af99550498c02ae410e5c750, type: 3}
  m_PrefabInstance: {fileID: 873907705}
  m_PrefabAsset: {fileID: 0}
--- !u!1 &1455511025
GameObject:
  m_ObjectHideFlags: 0
  m_CorrespondingSourceObject: {fileID: 0}
  m_PrefabInstance: {fileID: 0}
  m_PrefabAsset: {fileID: 0}
  serializedVersion: 6
  m_Component:
  - component: {fileID: 1455511027}
  - component: {fileID: 1455511026}
  m_Layer: 0
  m_Name: GameManager
  m_TagString: Untagged
  m_Icon: {fileID: 0}
  m_NavMeshLayer: 0
  m_StaticEditorFlags: 0
  m_IsActive: 1
--- !u!114 &1455511026
MonoBehaviour:
  m_ObjectHideFlags: 0
  m_CorrespondingSourceObject: {fileID: 0}
  m_PrefabInstance: {fileID: 0}
  m_PrefabAsset: {fileID: 0}
  m_GameObject: {fileID: 1455511025}
  m_Enabled: 1
  m_EditorHideFlags: 0
  m_Script: {fileID: 11500000, guid: 9fa7a5b4a03dbf44e8e1bb293c79595a, type: 3}
  m_Name: 
  m_EditorClassIdentifier: 
--- !u!4 &1455511027
Transform:
  m_ObjectHideFlags: 0
  m_CorrespondingSourceObject: {fileID: 0}
  m_PrefabInstance: {fileID: 0}
  m_PrefabAsset: {fileID: 0}
  m_GameObject: {fileID: 1455511025}
  m_LocalRotation: {x: 0, y: 0, z: 0, w: 1}
  m_LocalPosition: {x: 0, y: 0, z: 0}
  m_LocalScale: {x: 1, y: 1, z: 1}
  m_ConstrainProportionsScale: 0
  m_Children: []
  m_Father: {fileID: 0}
  m_RootOrder: 2
  m_LocalEulerAnglesHint: {x: 0, y: 0, z: 0}
--- !u!1001 &1583617591
PrefabInstance:
  m_ObjectHideFlags: 0
  serializedVersion: 2
  m_Modification:
    m_TransformParent: {fileID: 0}
    m_Modifications:
    - target: {fileID: 7122898442922194329, guid: d862dff190f463f41a56da7e84429068, type: 3}
      propertyPath: m_Name
      value: PushingObstacle (2)
      objectReference: {fileID: 0}
    - target: {fileID: 7122898442922194330, guid: d862dff190f463f41a56da7e84429068, type: 3}
      propertyPath: m_RootOrder
      value: 23
      objectReference: {fileID: 0}
    - target: {fileID: 7122898442922194330, guid: d862dff190f463f41a56da7e84429068, type: 3}
      propertyPath: m_LocalPosition.x
      value: 162.22
      objectReference: {fileID: 0}
    - target: {fileID: 7122898442922194330, guid: d862dff190f463f41a56da7e84429068, type: 3}
      propertyPath: m_LocalPosition.y
      value: 12.151
      objectReference: {fileID: 0}
    - target: {fileID: 7122898442922194330, guid: d862dff190f463f41a56da7e84429068, type: 3}
      propertyPath: m_LocalPosition.z
      value: 92.41
      objectReference: {fileID: 0}
    - target: {fileID: 7122898442922194330, guid: d862dff190f463f41a56da7e84429068, type: 3}
      propertyPath: m_LocalRotation.w
      value: 1
      objectReference: {fileID: 0}
    - target: {fileID: 7122898442922194330, guid: d862dff190f463f41a56da7e84429068, type: 3}
      propertyPath: m_LocalRotation.x
      value: 0
      objectReference: {fileID: 0}
    - target: {fileID: 7122898442922194330, guid: d862dff190f463f41a56da7e84429068, type: 3}
      propertyPath: m_LocalRotation.y
      value: 0
      objectReference: {fileID: 0}
    - target: {fileID: 7122898442922194330, guid: d862dff190f463f41a56da7e84429068, type: 3}
      propertyPath: m_LocalRotation.z
      value: 0
      objectReference: {fileID: 0}
    - target: {fileID: 7122898442922194330, guid: d862dff190f463f41a56da7e84429068, type: 3}
      propertyPath: m_LocalEulerAnglesHint.x
      value: 0
      objectReference: {fileID: 0}
    - target: {fileID: 7122898442922194330, guid: d862dff190f463f41a56da7e84429068, type: 3}
      propertyPath: m_LocalEulerAnglesHint.y
      value: 0
      objectReference: {fileID: 0}
    - target: {fileID: 7122898442922194330, guid: d862dff190f463f41a56da7e84429068, type: 3}
      propertyPath: m_LocalEulerAnglesHint.z
      value: 0
      objectReference: {fileID: 0}
    - target: {fileID: 7122898444190968838, guid: d862dff190f463f41a56da7e84429068, type: 3}
      propertyPath: m_LocalScale.x
      value: 4.1525273
      objectReference: {fileID: 0}
    - target: {fileID: 7122898444190968838, guid: d862dff190f463f41a56da7e84429068, type: 3}
      propertyPath: m_LocalPosition.x
      value: -0.47000122
      objectReference: {fileID: 0}
    m_RemovedComponents: []
  m_SourcePrefab: {fileID: 100100000, guid: d862dff190f463f41a56da7e84429068, type: 3}
--- !u!1 &1690443046
GameObject:
  m_ObjectHideFlags: 0
  m_CorrespondingSourceObject: {fileID: 0}
  m_PrefabInstance: {fileID: 0}
  m_PrefabAsset: {fileID: 0}
  serializedVersion: 6
  m_Component:
  - component: {fileID: 1690443050}
  - component: {fileID: 1690443049}
  - component: {fileID: 1690443048}
  - component: {fileID: 1690443047}
  m_Layer: 0
  m_Name: Wall
  m_TagString: Untagged
  m_Icon: {fileID: 0}
  m_NavMeshLayer: 0
  m_StaticEditorFlags: 0
  m_IsActive: 1
--- !u!65 &1690443047
BoxCollider:
  m_ObjectHideFlags: 0
  m_CorrespondingSourceObject: {fileID: 0}
  m_PrefabInstance: {fileID: 0}
  m_PrefabAsset: {fileID: 0}
  m_GameObject: {fileID: 1690443046}
  m_Material: {fileID: 0}
  m_IsTrigger: 0
  m_Enabled: 1
  serializedVersion: 2
  m_Size: {x: 1, y: 1, z: 1}
  m_Center: {x: 0, y: 0, z: 0}
--- !u!23 &1690443048
MeshRenderer:
  m_ObjectHideFlags: 0
  m_CorrespondingSourceObject: {fileID: 0}
  m_PrefabInstance: {fileID: 0}
  m_PrefabAsset: {fileID: 0}
  m_GameObject: {fileID: 1690443046}
  m_Enabled: 1
  m_CastShadows: 1
  m_ReceiveShadows: 1
  m_DynamicOccludee: 1
  m_StaticShadowCaster: 0
  m_MotionVectors: 1
  m_LightProbeUsage: 1
  m_ReflectionProbeUsage: 1
  m_RayTracingMode: 2
  m_RayTraceProcedural: 0
  m_RenderingLayerMask: 1
  m_RendererPriority: 0
  m_Materials:
  - {fileID: 2100000, guid: b7e2dfe21f15e9b41a50841963b4e436, type: 2}
  m_StaticBatchInfo:
    firstSubMesh: 0
    subMeshCount: 0
  m_StaticBatchRoot: {fileID: 0}
  m_ProbeAnchor: {fileID: 0}
  m_LightProbeVolumeOverride: {fileID: 0}
  m_ScaleInLightmap: 1
  m_ReceiveGI: 1
  m_PreserveUVs: 0
  m_IgnoreNormalsForChartDetection: 0
  m_ImportantGI: 0
  m_StitchLightmapSeams: 1
  m_SelectedEditorRenderState: 3
  m_MinimumChartSize: 4
  m_AutoUVMaxDistance: 0.5
  m_AutoUVMaxAngle: 89
  m_LightmapParameters: {fileID: 0}
  m_SortingLayerID: 0
  m_SortingLayer: 0
  m_SortingOrder: 0
  m_AdditionalVertexStreams: {fileID: 0}
--- !u!33 &1690443049
MeshFilter:
  m_ObjectHideFlags: 0
  m_CorrespondingSourceObject: {fileID: 0}
  m_PrefabInstance: {fileID: 0}
  m_PrefabAsset: {fileID: 0}
  m_GameObject: {fileID: 1690443046}
  m_Mesh: {fileID: 10202, guid: 0000000000000000e000000000000000, type: 0}
--- !u!4 &1690443050
Transform:
  m_ObjectHideFlags: 0
  m_CorrespondingSourceObject: {fileID: 0}
  m_PrefabInstance: {fileID: 0}
  m_PrefabAsset: {fileID: 0}
  m_GameObject: {fileID: 1690443046}
  m_LocalRotation: {x: 0, y: 0, z: 0, w: 1}
  m_LocalPosition: {x: 150, y: 12.14, z: 74.14}
  m_LocalScale: {x: 19.460272, y: 3.5742, z: 1}
  m_ConstrainProportionsScale: 0
  m_Children: []
  m_Father: {fileID: 0}
  m_RootOrder: 8
  m_LocalEulerAnglesHint: {x: 0, y: 0, z: 0}
--- !u!1001 &1730486813
PrefabInstance:
  m_ObjectHideFlags: 0
  serializedVersion: 2
  m_Modification:
    m_TransformParent: {fileID: 0}
    m_Modifications:
    - target: {fileID: 1114042122310947171, guid: cb8b7274e69294d4ab3f953cf13d7c55, type: 3}
      propertyPath: FailUI
      value: 
      objectReference: {fileID: 751464603}
    - target: {fileID: 4845973521918848056, guid: cb8b7274e69294d4ab3f953cf13d7c55, type: 3}
      propertyPath: m_Name
      value: Spikes (5)
      objectReference: {fileID: 0}
    - target: {fileID: 4845973521918848059, guid: cb8b7274e69294d4ab3f953cf13d7c55, type: 3}
      propertyPath: m_RootOrder
      value: 19
      objectReference: {fileID: 0}
    - target: {fileID: 4845973521918848059, guid: cb8b7274e69294d4ab3f953cf13d7c55, type: 3}
      propertyPath: m_LocalPosition.x
      value: 140.28
      objectReference: {fileID: 0}
    - target: {fileID: 4845973521918848059, guid: cb8b7274e69294d4ab3f953cf13d7c55, type: 3}
      propertyPath: m_LocalPosition.y
      value: 10.8
      objectReference: {fileID: 0}
    - target: {fileID: 4845973521918848059, guid: cb8b7274e69294d4ab3f953cf13d7c55, type: 3}
      propertyPath: m_LocalPosition.z
      value: 92.64
      objectReference: {fileID: 0}
    - target: {fileID: 4845973521918848059, guid: cb8b7274e69294d4ab3f953cf13d7c55, type: 3}
      propertyPath: m_LocalRotation.w
      value: 1
      objectReference: {fileID: 0}
    - target: {fileID: 4845973521918848059, guid: cb8b7274e69294d4ab3f953cf13d7c55, type: 3}
      propertyPath: m_LocalRotation.x
      value: 0
      objectReference: {fileID: 0}
    - target: {fileID: 4845973521918848059, guid: cb8b7274e69294d4ab3f953cf13d7c55, type: 3}
      propertyPath: m_LocalRotation.y
      value: 0
      objectReference: {fileID: 0}
    - target: {fileID: 4845973521918848059, guid: cb8b7274e69294d4ab3f953cf13d7c55, type: 3}
      propertyPath: m_LocalRotation.z
      value: 0
      objectReference: {fileID: 0}
    - target: {fileID: 4845973521918848059, guid: cb8b7274e69294d4ab3f953cf13d7c55, type: 3}
      propertyPath: m_LocalEulerAnglesHint.x
      value: 0
      objectReference: {fileID: 0}
    - target: {fileID: 4845973521918848059, guid: cb8b7274e69294d4ab3f953cf13d7c55, type: 3}
      propertyPath: m_LocalEulerAnglesHint.y
      value: 0
      objectReference: {fileID: 0}
    - target: {fileID: 4845973521918848059, guid: cb8b7274e69294d4ab3f953cf13d7c55, type: 3}
      propertyPath: m_LocalEulerAnglesHint.z
      value: 0
      objectReference: {fileID: 0}
    m_RemovedComponents: []
  m_SourcePrefab: {fileID: 100100000, guid: cb8b7274e69294d4ab3f953cf13d7c55, type: 3}
--- !u!1 &1938586648
GameObject:
  m_ObjectHideFlags: 0
  m_CorrespondingSourceObject: {fileID: 0}
  m_PrefabInstance: {fileID: 0}
  m_PrefabAsset: {fileID: 0}
  serializedVersion: 6
  m_Component:
  - component: {fileID: 1938586651}
  - component: {fileID: 1938586650}
  - component: {fileID: 1938586649}
  m_Layer: 0
  m_Name: EventSystem
  m_TagString: Untagged
  m_Icon: {fileID: 0}
  m_NavMeshLayer: 0
  m_StaticEditorFlags: 0
  m_IsActive: 1
--- !u!114 &1938586649
MonoBehaviour:
  m_ObjectHideFlags: 0
  m_CorrespondingSourceObject: {fileID: 0}
  m_PrefabInstance: {fileID: 0}
  m_PrefabAsset: {fileID: 0}
  m_GameObject: {fileID: 1938586648}
  m_Enabled: 1
  m_EditorHideFlags: 0
  m_Script: {fileID: 11500000, guid: 4f231c4fb786f3946a6b90b886c48677, type: 3}
  m_Name: 
  m_EditorClassIdentifier: 
  m_SendPointerHoverToParent: 1
  m_HorizontalAxis: Horizontal
  m_VerticalAxis: Vertical
  m_SubmitButton: Submit
  m_CancelButton: Cancel
  m_InputActionsPerSecond: 10
  m_RepeatDelay: 0.5
  m_ForceModuleActive: 0
--- !u!114 &1938586650
MonoBehaviour:
  m_ObjectHideFlags: 0
  m_CorrespondingSourceObject: {fileID: 0}
  m_PrefabInstance: {fileID: 0}
  m_PrefabAsset: {fileID: 0}
  m_GameObject: {fileID: 1938586648}
  m_Enabled: 1
  m_EditorHideFlags: 0
  m_Script: {fileID: 11500000, guid: 76c392e42b5098c458856cdf6ecaaaa1, type: 3}
  m_Name: 
  m_EditorClassIdentifier: 
  m_FirstSelected: {fileID: 0}
  m_sendNavigationEvents: 1
  m_DragThreshold: 10
--- !u!4 &1938586651
Transform:
  m_ObjectHideFlags: 0
  m_CorrespondingSourceObject: {fileID: 0}
  m_PrefabInstance: {fileID: 0}
  m_PrefabAsset: {fileID: 0}
  m_GameObject: {fileID: 1938586648}
  m_LocalRotation: {x: 0, y: 0, z: 0, w: 1}
  m_LocalPosition: {x: 0, y: 0, z: 0}
  m_LocalScale: {x: 1, y: 1, z: 1}
  m_ConstrainProportionsScale: 0
  m_Children: []
  m_Father: {fileID: 0}
  m_RootOrder: 4
  m_LocalEulerAnglesHint: {x: 0, y: 0, z: 0}
--- !u!1001 &2055237241
PrefabInstance:
  m_ObjectHideFlags: 0
  serializedVersion: 2
  m_Modification:
    m_TransformParent: {fileID: 0}
    m_Modifications:
    - target: {fileID: 1114042122310947171, guid: cb8b7274e69294d4ab3f953cf13d7c55, type: 3}
      propertyPath: FailUI
      value: 
      objectReference: {fileID: 751464603}
    - target: {fileID: 4845973521918848056, guid: cb8b7274e69294d4ab3f953cf13d7c55, type: 3}
      propertyPath: m_Name
      value: Spikes (2)
      objectReference: {fileID: 0}
    - target: {fileID: 4845973521918848059, guid: cb8b7274e69294d4ab3f953cf13d7c55, type: 3}
      propertyPath: m_RootOrder
      value: 16
      objectReference: {fileID: 0}
    - target: {fileID: 4845973521918848059, guid: cb8b7274e69294d4ab3f953cf13d7c55, type: 3}
      propertyPath: m_LocalPosition.x
      value: 143.91
      objectReference: {fileID: 0}
    - target: {fileID: 4845973521918848059, guid: cb8b7274e69294d4ab3f953cf13d7c55, type: 3}
      propertyPath: m_LocalPosition.y
      value: 10.8
      objectReference: {fileID: 0}
    - target: {fileID: 4845973521918848059, guid: cb8b7274e69294d4ab3f953cf13d7c55, type: 3}
      propertyPath: m_LocalPosition.z
      value: 85.48
      objectReference: {fileID: 0}
    - target: {fileID: 4845973521918848059, guid: cb8b7274e69294d4ab3f953cf13d7c55, type: 3}
      propertyPath: m_LocalRotation.w
      value: 1
      objectReference: {fileID: 0}
    - target: {fileID: 4845973521918848059, guid: cb8b7274e69294d4ab3f953cf13d7c55, type: 3}
      propertyPath: m_LocalRotation.x
      value: 0
      objectReference: {fileID: 0}
    - target: {fileID: 4845973521918848059, guid: cb8b7274e69294d4ab3f953cf13d7c55, type: 3}
      propertyPath: m_LocalRotation.y
      value: 0
      objectReference: {fileID: 0}
    - target: {fileID: 4845973521918848059, guid: cb8b7274e69294d4ab3f953cf13d7c55, type: 3}
      propertyPath: m_LocalRotation.z
      value: 0
      objectReference: {fileID: 0}
    - target: {fileID: 4845973521918848059, guid: cb8b7274e69294d4ab3f953cf13d7c55, type: 3}
      propertyPath: m_LocalEulerAnglesHint.x
      value: 0
      objectReference: {fileID: 0}
    - target: {fileID: 4845973521918848059, guid: cb8b7274e69294d4ab3f953cf13d7c55, type: 3}
      propertyPath: m_LocalEulerAnglesHint.y
      value: 0
      objectReference: {fileID: 0}
    - target: {fileID: 4845973521918848059, guid: cb8b7274e69294d4ab3f953cf13d7c55, type: 3}
      propertyPath: m_LocalEulerAnglesHint.z
      value: 0
      objectReference: {fileID: 0}
    m_RemovedComponents: []
  m_SourcePrefab: {fileID: 100100000, guid: cb8b7274e69294d4ab3f953cf13d7c55, type: 3}
--- !u!1001 &2492580535912973087
PrefabInstance:
  m_ObjectHideFlags: 0
  serializedVersion: 2
  m_Modification:
    m_TransformParent: {fileID: 0}
    m_Modifications:
    - target: {fileID: 285182541117816894, guid: 8c6412daea70f2e4cb578def2a2dba27, type: 3}
      propertyPath: m_Name
      value: InteractableButton
      objectReference: {fileID: 0}
    - target: {fileID: 285182541117816894, guid: 8c6412daea70f2e4cb578def2a2dba27, type: 3}
      propertyPath: m_TagString
      value: Interactable
      objectReference: {fileID: 0}
    - target: {fileID: 5654797800243209976, guid: 8c6412daea70f2e4cb578def2a2dba27, type: 3}
      propertyPath: Door1
      value: 
      objectReference: {fileID: 146303951}
    - target: {fileID: 5654797800243209976, guid: 8c6412daea70f2e4cb578def2a2dba27, type: 3}
      propertyPath: Door2
      value: 
      objectReference: {fileID: 1424884398}
    - target: {fileID: 5654797800243209976, guid: 8c6412daea70f2e4cb578def2a2dba27, type: 3}
      propertyPath: ToolTip
      value: 
      objectReference: {fileID: 811223526}
    - target: {fileID: 7917966834679428205, guid: 8c6412daea70f2e4cb578def2a2dba27, type: 3}
      propertyPath: m_RootOrder
      value: 11
      objectReference: {fileID: 0}
    - target: {fileID: 7917966834679428205, guid: 8c6412daea70f2e4cb578def2a2dba27, type: 3}
      propertyPath: m_LocalPosition.x
      value: 150
      objectReference: {fileID: 0}
    - target: {fileID: 7917966834679428205, guid: 8c6412daea70f2e4cb578def2a2dba27, type: 3}
      propertyPath: m_LocalPosition.y
      value: 12.26
      objectReference: {fileID: 0}
    - target: {fileID: 7917966834679428205, guid: 8c6412daea70f2e4cb578def2a2dba27, type: 3}
      propertyPath: m_LocalPosition.z
      value: 73.68
      objectReference: {fileID: 0}
    - target: {fileID: 7917966834679428205, guid: 8c6412daea70f2e4cb578def2a2dba27, type: 3}
      propertyPath: m_LocalRotation.w
      value: 0.7071068
      objectReference: {fileID: 0}
    - target: {fileID: 7917966834679428205, guid: 8c6412daea70f2e4cb578def2a2dba27, type: 3}
      propertyPath: m_LocalRotation.x
      value: 0.7071068
      objectReference: {fileID: 0}
    - target: {fileID: 7917966834679428205, guid: 8c6412daea70f2e4cb578def2a2dba27, type: 3}
      propertyPath: m_LocalRotation.y
      value: 0
      objectReference: {fileID: 0}
    - target: {fileID: 7917966834679428205, guid: 8c6412daea70f2e4cb578def2a2dba27, type: 3}
      propertyPath: m_LocalRotation.z
      value: 0
      objectReference: {fileID: 0}
    - target: {fileID: 7917966834679428205, guid: 8c6412daea70f2e4cb578def2a2dba27, type: 3}
      propertyPath: m_LocalEulerAnglesHint.x
      value: 90
      objectReference: {fileID: 0}
    - target: {fileID: 7917966834679428205, guid: 8c6412daea70f2e4cb578def2a2dba27, type: 3}
      propertyPath: m_LocalEulerAnglesHint.y
      value: 0
      objectReference: {fileID: 0}
    - target: {fileID: 7917966834679428205, guid: 8c6412daea70f2e4cb578def2a2dba27, type: 3}
      propertyPath: m_LocalEulerAnglesHint.z
      value: 0
      objectReference: {fileID: 0}
    m_RemovedComponents: []
  m_SourcePrefab: {fileID: 100100000, guid: 8c6412daea70f2e4cb578def2a2dba27, type: 3}
--- !u!1001 &3727239075534582003
PrefabInstance:
  m_ObjectHideFlags: 0
  serializedVersion: 2
  m_Modification:
    m_TransformParent: {fileID: 0}
    m_Modifications:
    - target: {fileID: 4851864226288995874, guid: a118ade0af99550498c02ae410e5c750, type: 3}
      propertyPath: m_Name
      value: Door
      objectReference: {fileID: 0}
    - target: {fileID: 4851864226288995874, guid: a118ade0af99550498c02ae410e5c750, type: 3}
      propertyPath: m_TagString
      value: Door1
      objectReference: {fileID: 0}
    - target: {fileID: 5074960416861037400, guid: a118ade0af99550498c02ae410e5c750, type: 3}
      propertyPath: m_RootOrder
      value: 12
      objectReference: {fileID: 0}
    - target: {fileID: 5074960416861037400, guid: a118ade0af99550498c02ae410e5c750, type: 3}
      propertyPath: m_LocalPosition.x
      value: 137.63
      objectReference: {fileID: 0}
    - target: {fileID: 5074960416861037400, guid: a118ade0af99550498c02ae410e5c750, type: 3}
      propertyPath: m_LocalPosition.y
      value: 12.14
      objectReference: {fileID: 0}
    - target: {fileID: 5074960416861037400, guid: a118ade0af99550498c02ae410e5c750, type: 3}
      propertyPath: m_LocalPosition.z
      value: 74.14
      objectReference: {fileID: 0}
    - target: {fileID: 5074960416861037400, guid: a118ade0af99550498c02ae410e5c750, type: 3}
      propertyPath: m_LocalRotation.w
      value: 1
      objectReference: {fileID: 0}
    - target: {fileID: 5074960416861037400, guid: a118ade0af99550498c02ae410e5c750, type: 3}
      propertyPath: m_LocalRotation.x
      value: 0
      objectReference: {fileID: 0}
    - target: {fileID: 5074960416861037400, guid: a118ade0af99550498c02ae410e5c750, type: 3}
      propertyPath: m_LocalRotation.y
      value: 0
      objectReference: {fileID: 0}
    - target: {fileID: 5074960416861037400, guid: a118ade0af99550498c02ae410e5c750, type: 3}
      propertyPath: m_LocalRotation.z
      value: 0
      objectReference: {fileID: 0}
    - target: {fileID: 5074960416861037400, guid: a118ade0af99550498c02ae410e5c750, type: 3}
      propertyPath: m_LocalEulerAnglesHint.x
      value: 0
      objectReference: {fileID: 0}
    - target: {fileID: 5074960416861037400, guid: a118ade0af99550498c02ae410e5c750, type: 3}
      propertyPath: m_LocalEulerAnglesHint.y
      value: 0
      objectReference: {fileID: 0}
    - target: {fileID: 5074960416861037400, guid: a118ade0af99550498c02ae410e5c750, type: 3}
      propertyPath: m_LocalEulerAnglesHint.z
      value: 0
      objectReference: {fileID: 0}
    m_RemovedComponents: []
  m_SourcePrefab: {fileID: 100100000, guid: a118ade0af99550498c02ae410e5c750, type: 3}
